








 










 













































 








 




 

 

 

 
 

  #pragma system_include

 
 

 

  #pragma system_include






 















 
















 






 
 


  #pragma system_include

 
 

 

  #pragma system_include






 















 





                 



  

                 













 

   



                 



























 


  #pragma system_include

 
 
 


  #pragma system_include

 

   

 

   #pragma system_include






 




 

 


 


 

 

 

 

 

 

 

 

 

 














 












 




















 










 




















































































































 


 










 





















 















 













 








 












 











 










 









 











 









 









 









 









 














 














 
















 












 








 











 










 









 









 









 









 









 









 









 









 







 




 









 




 





 
















































 













 






 


   

  







 





 





 




 



 





 




 



 












 
   






 
  #pragma language = save 
  #pragma language = extended
  #pragma language = restore






 





 




 





 








                 




















 


                 

 

 
 

 

 

 

 



                 






 
 


  #pragma system_include

 
 

 

  #pragma system_include






 















 




 
 





 

                                 





                                 








                 

                 

                 

                 
                 



                 
                                 


  #pragma language=save
  #pragma language=extended
  typedef long long _Longlong;
  typedef unsigned long long _ULonglong;
  #pragma language=restore

  typedef unsigned short int _Wchart;
  typedef unsigned short int _Wintt;



                 

typedef signed int  _Ptrdifft;
typedef unsigned int     _Sizet;

 

                 



 
  typedef struct __va_list
  {
    char  *_Ap;
  } __va_list;

  typedef __va_list __Va_list;


__intrinsic __nounwind void __iar_Atexit(void (*)(void));


  typedef struct
  {        
    unsigned int _Wchar;
    unsigned int _State;
  } _Mbstatet;





typedef struct
{        
  _Longlong _Off;     
  _Mbstatet _Wstate;
} _Fpost;




                 














 


  #pragma system_include





 






















































































 

 


  
 

   


  





  #pragma language=save 
  #pragma language=extended
  __intrinsic __nounwind void __iar_dlib_perthread_initialize(void  *);
  __intrinsic __nounwind void  *__iar_dlib_perthread_allocate(void);
  __intrinsic __nounwind void __iar_dlib_perthread_destroy(void);
  __intrinsic __nounwind void __iar_dlib_perthread_deallocate(void  *);



  #pragma segment = "__DLIB_PERTHREAD" 
  #pragma segment = "__DLIB_PERTHREAD_init" 









   
  void  *__iar_dlib_perthread_access(void  *);
  #pragma language=restore








     
  



   

  


  
  typedef void *__iar_Rmtx;
  
  
  __intrinsic __nounwind void __iar_system_Mtxinit(__iar_Rmtx *m);
  __intrinsic __nounwind void __iar_system_Mtxdst(__iar_Rmtx *m);
  __intrinsic __nounwind void __iar_system_Mtxlock(__iar_Rmtx *m);
  __intrinsic __nounwind void __iar_system_Mtxunlock(__iar_Rmtx *m);

  __intrinsic __nounwind void __iar_file_Mtxinit(__iar_Rmtx *m);
  __intrinsic __nounwind void __iar_file_Mtxdst(__iar_Rmtx *m);
  __intrinsic __nounwind void __iar_file_Mtxlock(__iar_Rmtx *m);
  __intrinsic __nounwind void __iar_file_Mtxunlock(__iar_Rmtx *m);

  
 
  __intrinsic __nounwind void __iar_clearlocks(void);



  



  


  typedef unsigned _Once_t;

  








                 


                 
  
  
    
  _Pragma("object_attribute = __weak") __intrinsic __nounwind void __iar_Locksyslock_Locale(void);
  _Pragma("object_attribute = __weak") __intrinsic __nounwind void __iar_Locksyslock_Malloc(void);
  _Pragma("object_attribute = __weak") __intrinsic __nounwind void __iar_Locksyslock_Stream(void);
  _Pragma("object_attribute = __weak") __intrinsic __nounwind void __iar_Locksyslock_Debug(void);
  _Pragma("object_attribute = __weak") __intrinsic __nounwind void __iar_Locksyslock_StaticGuard(void);
  _Pragma("object_attribute = __weak") __intrinsic __nounwind void __iar_Locksyslock(unsigned int);
  _Pragma("object_attribute = __weak") __intrinsic __nounwind void __iar_Unlocksyslock_Locale(void);
  _Pragma("object_attribute = __weak") __intrinsic __nounwind void __iar_Unlocksyslock_Malloc(void);
  _Pragma("object_attribute = __weak") __intrinsic __nounwind void __iar_Unlocksyslock_Stream(void);
  _Pragma("object_attribute = __weak") __intrinsic __nounwind void __iar_Unlocksyslock_Debug(void);
  _Pragma("object_attribute = __weak") __intrinsic __nounwind void __iar_Unlocksyslock_StaticGuard(void);
  _Pragma("object_attribute = __weak") __intrinsic __nounwind void __iar_Unlocksyslock(unsigned int);

  _Pragma("object_attribute = __weak") __intrinsic __nounwind void __iar_Initdynamicfilelock(__iar_Rmtx *);
  _Pragma("object_attribute = __weak") __intrinsic __nounwind void __iar_Dstdynamicfilelock(__iar_Rmtx *);
  _Pragma("object_attribute = __weak") __intrinsic __nounwind void __iar_Lockdynamicfilelock(__iar_Rmtx *);
  _Pragma("object_attribute = __weak") __intrinsic __nounwind void __iar_Unlockdynamicfilelock(__iar_Rmtx *);
  
  

                 


                 







 


 
  typedef signed char   int8_t;
  typedef unsigned char uint8_t;

  typedef signed short int   int16_t;
  typedef unsigned short int uint16_t;

  typedef signed int   int32_t;
  typedef unsigned int uint32_t;

  #pragma language=save
  #pragma language=extended
  typedef signed long long int   int64_t;
  typedef unsigned long long int uint64_t;
  #pragma language=restore


 
typedef signed char   int_least8_t;
typedef unsigned char uint_least8_t;

typedef signed short int   int_least16_t;
typedef unsigned short int uint_least16_t;

typedef signed int   int_least32_t;
typedef unsigned int uint_least32_t;

 
  #pragma language=save
  #pragma language=extended
  typedef signed long long int int_least64_t;
  #pragma language=restore
  #pragma language=save
  #pragma language=extended
  typedef unsigned long long int uint_least64_t;
  #pragma language=restore



 
typedef signed int   int_fast8_t;
typedef unsigned int uint_fast8_t;

typedef signed int   int_fast16_t;
typedef unsigned int uint_fast16_t;

typedef signed int   int_fast32_t;
typedef unsigned int uint_fast32_t;

  #pragma language=save
  #pragma language=extended
  typedef signed long long int int_fast64_t;
  #pragma language=restore
  #pragma language=save
  #pragma language=extended
  typedef unsigned long long int uint_fast64_t;
  #pragma language=restore

 
#pragma language=save
#pragma language=extended
typedef signed long long int   intmax_t;
typedef unsigned long long int uintmax_t;
#pragma language=restore


 
typedef signed long int   intptr_t;
typedef unsigned long int uintptr_t;

 
typedef int __data_intptr_t; typedef unsigned int __data_uintptr_t;

 

























 














 


 
 




 




 

 
typedef enum {
  INT_Initial_Stack_Pointer    = 0,                 
  INT_Initial_Program_Counter  = 1,                 
  INT_NMI                      = 2,                 
  INT_Hard_Fault               = 3,                 
  INT_Reserved4                = 4,                 
  INT_Reserved5                = 5,                 
  INT_Reserved6                = 6,                 
  INT_Reserved7                = 7,                 
  INT_Reserved8                = 8,                 
  INT_Reserved9                = 9,                 
  INT_Reserved10               = 10,                
  INT_SVCall                   = 11,                
  INT_Reserved12               = 12,                
  INT_Reserved13               = 13,                
  INT_PendableSrvReq           = 14,                
  INT_SysTick                  = 15,                
  INT_DMA0                     = 16,                
  INT_DMA1                     = 17,                
  INT_DMA2                     = 18,                
  INT_DMA3                     = 19,                
  INT_Reserved20               = 20,                
  INT_FTFA                     = 21,                
  INT_LVD_LVW                  = 22,                
  INT_LLW                      = 23,                
  INT_I2C0                     = 24,                
  INT_I2C1                     = 25,                
  INT_SPI0                     = 26,                
  INT_SPI1                     = 27,                
  INT_UART0                    = 28,                
  INT_UART1                    = 29,                
  INT_UART2                    = 30,                
  INT_ADC0                     = 31,                
  INT_CMP0                     = 32,                
  INT_TPM0                     = 33,                
  INT_TPM1                     = 34,                
  INT_TPM2                     = 35,                
  INT_RTC                      = 36,                
  INT_RTC_Seconds              = 37,                
  INT_PIT                      = 38,                
  INT_I2S0                     = 39,                
  INT_USB0                     = 40,                
  INT_DAC0                     = 41,                
  INT_TSI0                     = 42,                
  INT_MCG                      = 43,                
  INT_LPTimer                  = 44,                
  INT_Reserved45               = 45,                
  INT_PORTA                    = 46,                
  INT_PORTC_PORTD              = 47                 
} IRQInterruptIndex;



   




 




 




 

  #pragma language=extended



 




 

 
typedef struct ADC_MemMap {
  uint32_t SC1[2];                                  
  uint32_t CFG1;                                    
  uint32_t CFG2;                                    
  uint32_t R[2];                                    
  uint32_t CV1;                                     
  uint32_t CV2;                                     
  uint32_t SC2;                                     
  uint32_t SC3;                                     
  uint32_t OFS;                                     
  uint32_t PG;                                      
  uint32_t MG;                                      
  uint32_t CLPD;                                    
  uint32_t CLPS;                                    
  uint32_t CLP4;                                    
  uint32_t CLP3;                                    
  uint32_t CLP2;                                    
  uint32_t CLP1;                                    
  uint32_t CLP0;                                    
  uint8_t RESERVED_0[4];
  uint32_t CLMD;                                    
  uint32_t CLMS;                                    
  uint32_t CLM4;                                    
  uint32_t CLM3;                                    
  uint32_t CLM2;                                    
  uint32_t CLM1;                                    
  uint32_t CLM0;                                    
} volatile *ADC_MemMapPtr;



 




 


 



   




 




 

 
 
 
 
 
 
 
 
 
 
 
 
 
 
 
 
 
 
 
 
 
 
 
 
 



   


 
 
 



 




 


 
 

 



   




   




 




 

 
typedef struct BP_MemMap {
  uint32_t CTRL;                                    
  uint8_t RESERVED_0[4];
  uint32_t COMP[2];                                 
  uint8_t RESERVED_1[4032];
  uint32_t PID4;                                    
  uint32_t PID5;                                    
  uint32_t PID6;                                    
  uint32_t PID7;                                    
  uint32_t PID0;                                    
  uint32_t PID1;                                    
  uint32_t PID2;                                    
  uint32_t PID3;                                    
  uint32_t CID0;                                    
  uint32_t CID1;                                    
  uint32_t CID2;                                    
  uint32_t CID3;                                    
} volatile *BP_MemMapPtr;



 




 


 



   




 




 




   


 
 
 



 




 


 
 

 



   




   




 




 

 
typedef struct CMP_MemMap {
  uint8_t CR0;                                      
  uint8_t CR1;                                      
  uint8_t FPR;                                      
  uint8_t SCR;                                      
  uint8_t DACCR;                                    
  uint8_t MUXCR;                                    
} volatile *CMP_MemMapPtr;



 




 


 



   




 




 

 
 
 
 
 
 



   


 
 
 



 




 


 
 



   




   




 




 

 
typedef struct CoreDebug_MemMap {
  union {                                           
    uint32_t base_DHCSR_Read;                         
    uint32_t base_DHCSR_Write;                        
  };
  uint32_t base_DCRSR;                              
  uint32_t base_DCRDR;                              
  uint32_t base_DEMCR;                              
} volatile *CoreDebug_MemMapPtr;



 




 


 



   




 




 




   


 
 
 



 




 


 
 



   




   




 




 

 
typedef struct DAC_MemMap {
  struct {                                          
    uint8_t DATL;                                     
    uint8_t DATH;                                     
  } DAT[2];
  uint8_t RESERVED_0[28];
  uint8_t SR;                                       
  uint8_t C0;                                       
  uint8_t C1;                                       
  uint8_t C2;                                       
} volatile *DAC_MemMapPtr;



 




 


 



   




 




 

 
 
 
 
 
 



   


 
 
 



 




 


 
 

 



   




   




 




 

 
typedef struct DMA_MemMap {
  uint8_t RESERVED_0[256];
  struct {                                          
    uint32_t SAR;                                     
    uint32_t DAR;                                     
    union {                                           
      uint32_t DSR_BCR;                                 
      struct {                                          
        uint8_t RESERVED_0[3];
        uint8_t DSR;                                      
      } DMA_DSR_ACCESS8BIT;
    };
    uint32_t DCR;                                     
  } DMA[4];
} volatile *DMA_MemMapPtr;



 




 


 



   




 




 

 
 
 
 



   


 
 
 



 




 


 
 

 



   




   




 




 

 
typedef struct DMAMUX_MemMap {
  uint8_t CHCFG[4];                                 
} volatile *DMAMUX_MemMapPtr;



 




 


 



   




 




 

 



   


 
 
 



 




 


 
 

 



   




   




 




 

 
typedef struct DWT_MemMap {
  uint32_t CTRL;                                    
  uint8_t RESERVED_0[24];
  uint32_t PCSR;                                    
  struct {                                          
    uint32_t COMP;                                    
    uint32_t MASK;                                    
    uint32_t FUNCTION;                                
    uint8_t RESERVED_0[4];
  } COMPARATOR[2];
} volatile *DWT_MemMapPtr;



 




 


 



   




 




 




   


 
 
 



 




 


 
 

 



   




   




 




 

 
typedef struct FGPIO_MemMap {
  uint32_t PDOR;                                    
  uint32_t PSOR;                                    
  uint32_t PCOR;                                    
  uint32_t PTOR;                                    
  uint32_t PDIR;                                    
  uint32_t PDDR;                                    
} volatile *FGPIO_MemMapPtr;



 




 


 



   




 




 

 
 
 
 
 
 



   


 
 
 
 
 
 
 



 




 


 
 
 
 
 
 



   




   




 




 

 
typedef struct FTFA_MemMap {
  uint8_t FSTAT;                                    
  uint8_t FCNFG;                                    
  uint8_t FSEC;                                     
  uint8_t FOPT;                                     
  uint8_t FCCOB3;                                   
  uint8_t FCCOB2;                                   
  uint8_t FCCOB1;                                   
  uint8_t FCCOB0;                                   
  uint8_t FCCOB7;                                   
  uint8_t FCCOB6;                                   
  uint8_t FCCOB5;                                   
  uint8_t FCCOB4;                                   
  uint8_t FCCOBB;                                   
  uint8_t FCCOBA;                                   
  uint8_t FCCOB9;                                   
  uint8_t FCCOB8;                                   
  uint8_t FPROT3;                                   
  uint8_t FPROT2;                                   
  uint8_t FPROT1;                                   
  uint8_t FPROT0;                                   
} volatile *FTFA_MemMapPtr;



 




 


 



   




 




 

 
 
 
 
 
 
 
 
 
 
 
 
 
 
 
 
 
 
 
 



   


 
 
 



 




 


 
 



   




   




 




 

 
typedef struct GPIO_MemMap {
  uint32_t PDOR;                                    
  uint32_t PSOR;                                    
  uint32_t PCOR;                                    
  uint32_t PTOR;                                    
  uint32_t PDIR;                                    
  uint32_t PDDR;                                    
} volatile *GPIO_MemMapPtr;



 




 


 



   




 




 

 
 
 
 
 
 



   


 
 
 
 
 
 
 



 




 


 
 
 
 
 
 



   




   




 




 

 
typedef struct I2C_MemMap {
  uint8_t A1;                                       
  uint8_t F;                                        
  uint8_t C1;                                       
  uint8_t S;                                        
  uint8_t D;                                        
  uint8_t C2;                                       
  uint8_t FLT;                                      
  uint8_t RA;                                       
  uint8_t SMB;                                      
  uint8_t A2;                                       
  uint8_t SLTH;                                     
  uint8_t SLTL;                                     
} volatile *I2C_MemMapPtr;



 




 


 



   




 




 

 
 
 
 
 
 
 
 
 
 
 
 



   


 
 
 
 



 




 


 
 
 



   




   




 




 

 
typedef struct I2S_MemMap {
  uint32_t TCSR;                                    
  uint8_t RESERVED_0[4];
  uint32_t TCR2;                                    
  uint32_t TCR3;                                    
  uint32_t TCR4;                                    
  uint32_t TCR5;                                    
  uint8_t RESERVED_1[8];
  uint32_t TDR[1];                                  
  uint8_t RESERVED_2[60];
  uint32_t TMR;                                     
  uint8_t RESERVED_3[28];
  uint32_t RCSR;                                    
  uint8_t RESERVED_4[4];
  uint32_t RCR2;                                    
  uint32_t RCR3;                                    
  uint32_t RCR4;                                    
  uint32_t RCR5;                                    
  uint8_t RESERVED_5[8];
  uint32_t RDR[1];                                  
  uint8_t RESERVED_6[60];
  uint32_t RMR;                                     
  uint8_t RESERVED_7[28];
  uint32_t MCR;                                     
  uint32_t MDR;                                     
} volatile *I2S_MemMapPtr;



 




 


 



   




 




 

 
 
 
 
 
 
 
 
 
 
 
 
 
 
 
 



   


 
 
 



 




 


 
 

 



   




   




 




 

 
typedef struct LLWU_MemMap {
  uint8_t PE1;                                      
  uint8_t PE2;                                      
  uint8_t PE3;                                      
  uint8_t PE4;                                      
  uint8_t ME;                                       
  uint8_t F1;                                       
  uint8_t F2;                                       
  uint8_t F3;                                       
  uint8_t FILT1;                                    
  uint8_t FILT2;                                    
} volatile *LLWU_MemMapPtr;



 




 


 



   




 




 

 
 
 
 
 
 
 
 
 
 



   


 
 
 



 




 


 
 



   




   




 




 

 
typedef struct LPTMR_MemMap {
  uint32_t CSR;                                     
  uint32_t PSR;                                     
  uint32_t CMR;                                     
  uint32_t CNR;                                     
} volatile *LPTMR_MemMapPtr;



 




 


 



   




 




 

 
 
 
 



   


 
 
 



 




 


 
 



   




   




 




 

 
typedef struct MCG_MemMap {
  uint8_t C1;                                       
  uint8_t C2;                                       
  uint8_t C3;                                       
  uint8_t C4;                                       
  uint8_t C5;                                       
  uint8_t C6;                                       
  uint8_t S;                                        
  uint8_t RESERVED_0[1];
  uint8_t SC;                                       
  uint8_t RESERVED_1[1];
  uint8_t ATCVH;                                    
  uint8_t ATCVL;                                    
  uint8_t C7;                                       
  uint8_t C8;                                       
  uint8_t C9;                                       
  uint8_t C10;                                      
} volatile *MCG_MemMapPtr;



 




 


 



   




 




 

 
 
 
 
 
 
 
 
 
 
 



   


 
 
 



 




 


 
 



   




   




 




 

 
typedef struct MCM_MemMap {
  uint8_t RESERVED_0[8];
  uint16_t PLASC;                                   
  uint16_t PLAMC;                                   
  uint32_t PLACR;                                   
  uint8_t RESERVED_1[48];
  uint32_t CPO;                                     
} volatile *MCM_MemMapPtr;



 




 


 



   




 




 

 
 
 
 



   


 
 
 



 




 


 
 



   




   




 




 

 
typedef struct MTB_MemMap {
  uint32_t POSITION;                                
  uint32_t MASTER;                                  
  uint32_t FLOW;                                    
  uint32_t BASE;                                    
  uint8_t RESERVED_0[3824];
  uint32_t MODECTRL;                                
  uint8_t RESERVED_1[156];
  uint32_t TAGSET;                                  
  uint32_t TAGCLEAR;                                
  uint8_t RESERVED_2[8];
  uint32_t LOCKACCESS;                              
  uint32_t LOCKSTAT;                                
  uint32_t AUTHSTAT;                                
  uint32_t DEVICEARCH;                              
  uint8_t RESERVED_3[8];
  uint32_t DEVICECFG;                               
  uint32_t DEVICETYPID;                             
  uint32_t PERIPHID[8];                             
  uint32_t COMPID[4];                               
} volatile *MTB_MemMapPtr;



 




 


 



   




 




 

 
 
 
 
 
 
 
 
 
 
 
 
 
 
 



   


 
 
 



 




 


 
 

 



   




   




 




 

 
typedef struct MTBDWT_MemMap {
  uint32_t CTRL;                                    
  uint8_t RESERVED_0[28];
  struct {                                          
    uint32_t COMP;                                    
    uint32_t MASK;                                    
    uint32_t FCT;                                     
    uint8_t RESERVED_0[4];
  } COMPARATOR[2];
  uint8_t RESERVED_1[448];
  uint32_t TBCTRL;                                  
  uint8_t RESERVED_2[3524];
  uint32_t DEVICECFG;                               
  uint32_t DEVICETYPID;                             
  uint32_t PERIPHID[8];                             
  uint32_t COMPID[4];                               
} volatile *MTBDWT_MemMapPtr;



 




 


 



   




 




 

 
 
 
 
 
 
 
 
 



   


 
 
 



 




 


 
 

 



   




   




 




 

 
typedef struct NV_MemMap {
  uint8_t BACKKEY3;                                 
  uint8_t BACKKEY2;                                 
  uint8_t BACKKEY1;                                 
  uint8_t BACKKEY0;                                 
  uint8_t BACKKEY7;                                 
  uint8_t BACKKEY6;                                 
  uint8_t BACKKEY5;                                 
  uint8_t BACKKEY4;                                 
  uint8_t FPROT3;                                   
  uint8_t FPROT2;                                   
  uint8_t FPROT1;                                   
  uint8_t FPROT0;                                   
  uint8_t FSEC;                                     
  uint8_t FOPT;                                     
} volatile *NV_MemMapPtr;



 




 


 



   




 




 

 
 
 
 
 
 
 
 
 
 
 
 
 
 



   


 
 
 



 




 


 
 



   




   




 




 

 
typedef struct NVIC_MemMap {
  uint32_t ISER;                                    
  uint8_t RESERVED_0[124];
  uint32_t ICER;                                    
  uint8_t RESERVED_1[124];
  uint32_t ISPR;                                    
  uint8_t RESERVED_2[124];
  uint32_t ICPR;                                    
  uint8_t RESERVED_3[380];
  uint32_t IP[8];                                   
} volatile *NVIC_MemMapPtr;



 




 


 



   




 




 

 
 
 
 
 



   


 
 
 



 




 


 
 

 



   




   




 




 

 
typedef struct OSC_MemMap {
  uint8_t CR;                                       
} volatile *OSC_MemMapPtr;



 




 


 



   




 




 

 



   


 
 
 



 




 


 
 



   




   




 




 

 
typedef struct PIT_MemMap {
  uint32_t MCR;                                     
  uint8_t RESERVED_0[220];
  uint32_t LTMR64H;                                 
  uint32_t LTMR64L;                                 
  uint8_t RESERVED_1[24];
  struct {                                          
    uint32_t LDVAL;                                   
    uint32_t CVAL;                                    
    uint32_t TCTRL;                                   
    uint32_t TFLG;                                    
  } CHANNEL[2];
} volatile *PIT_MemMapPtr;



 




 


 



   




 




 

 
 
 
 
 
 
 



   


 
 
 



 




 


 
 

 



   




   




 




 

 
typedef struct PMC_MemMap {
  uint8_t LVDSC1;                                   
  uint8_t LVDSC2;                                   
  uint8_t REGSC;                                    
} volatile *PMC_MemMapPtr;



 




 


 



   




 




 

 
 
 



   


 
 
 



 




 


 
 



   




   




 




 

 
typedef struct PORT_MemMap {
  uint32_t PCR[32];                                 
  uint32_t GPCLR;                                   
  uint32_t GPCHR;                                   
  uint8_t RESERVED_0[24];
  uint32_t ISFR;                                    
} volatile *PORT_MemMapPtr;



 




 


 



   




 




 

 
 
 
 



   


 
 
 
 
 
 
 



 




 


 
 
 
 
 
 

 



   




   




 




 

 
typedef struct RCM_MemMap {
  uint8_t SRS0;                                     
  uint8_t SRS1;                                     
  uint8_t RESERVED_0[2];
  uint8_t RPFC;                                     
  uint8_t RPFW;                                     
} volatile *RCM_MemMapPtr;



 




 


 



   




 




 

 
 
 
 



   


 
 
 



 




 


 
 



   




   




 




 

 
typedef struct ROM_MemMap {
  uint32_t ENTRY[3];                                
  uint32_t TABLEMARK;                               
  uint8_t RESERVED_0[4028];
  uint32_t SYSACCESS;                               
  uint32_t PERIPHID4;                               
  uint32_t PERIPHID5;                               
  uint32_t PERIPHID6;                               
  uint32_t PERIPHID7;                               
  uint32_t PERIPHID0;                               
  uint32_t PERIPHID1;                               
  uint32_t PERIPHID2;                               
  uint32_t PERIPHID3;                               
  uint32_t COMPID[4];                               
} volatile *ROM_MemMapPtr;



 




 


 



   




 




 

 
 
 
 
 
 
 
 
 
 
 
 



   


 
 
 



 




 


 
 

 



   




   




 




 

 
typedef struct RTC_MemMap {
  uint32_t TSR;                                     
  uint32_t TPR;                                     
  uint32_t TAR;                                     
  uint32_t TCR;                                     
  uint32_t CR;                                      
  uint32_t SR;                                      
  uint32_t LR;                                      
  uint32_t IER;                                     
} volatile *RTC_MemMapPtr;



 




 


 



   




 




 

 
 
 
 
 
 
 
 



   


 
 
 



 




 


 
 



   




   




 




 

 
typedef struct SCB_MemMap {
  uint8_t RESERVED_0[8];
  uint32_t ACTLR;                                   
  uint8_t RESERVED_1[3316];
  uint32_t CPUID;                                   
  uint32_t ICSR;                                    
  uint32_t VTOR;                                    
  uint32_t AIRCR;                                   
  uint32_t SCR;                                     
  uint32_t CCR;                                     
  uint8_t RESERVED_2[4];
  uint32_t SHPR2;                                   
  uint32_t SHPR3;                                   
  uint32_t SHCSR;                                   
  uint8_t RESERVED_3[8];
  uint32_t DFSR;                                    
} volatile *SCB_MemMapPtr;



 




 


 



   




 




 

 
 
 
 
 
 
 
 
 
 



   


 
 
 



 




 


 
 



   




   




 




 

 
typedef struct SIM_MemMap {
  uint32_t SOPT1;                                   
  uint32_t SOPT1CFG;                                
  uint8_t RESERVED_0[4092];
  uint32_t SOPT2;                                   
  uint8_t RESERVED_1[4];
  uint32_t SOPT4;                                   
  uint32_t SOPT5;                                   
  uint8_t RESERVED_2[4];
  uint32_t SOPT7;                                   
  uint8_t RESERVED_3[8];
  uint32_t SDID;                                    
  uint8_t RESERVED_4[12];
  uint32_t SCGC4;                                   
  uint32_t SCGC5;                                   
  uint32_t SCGC6;                                   
  uint32_t SCGC7;                                   
  uint32_t CLKDIV1;                                 
  uint8_t RESERVED_5[4];
  uint32_t FCFG1;                                   
  uint32_t FCFG2;                                   
  uint8_t RESERVED_6[4];
  uint32_t UIDMH;                                   
  uint32_t UIDML;                                   
  uint32_t UIDL;                                    
  uint8_t RESERVED_7[156];
  uint32_t COPC;                                    
  uint32_t SRVCOP;                                  
} volatile *SIM_MemMapPtr;



 




 


 



   




 




 

 
 
 
 
 
 
 
 
 
 
 
 
 
 
 
 
 
 
 



   


 
 
 



 




 


 
 



   




   




 




 

 
typedef struct SMC_MemMap {
  uint8_t PMPROT;                                   
  uint8_t PMCTRL;                                   
  uint8_t STOPCTRL;                                 
  uint8_t PMSTAT;                                   
} volatile *SMC_MemMapPtr;



 




 


 



   




 




 

 
 
 
 



   


 
 
 



 




 


 
 



   




   




 




 

 
typedef struct SPI_MemMap {
  uint8_t S;                                        
  uint8_t BR;                                       
  uint8_t C2;                                       
  uint8_t C1;                                       
  uint8_t ML;                                       
  uint8_t MH;                                       
  uint8_t DL;                                       
  uint8_t DH;                                       
  uint8_t RESERVED_0[2];
  uint8_t CI;                                       
  uint8_t C3;                                       
} volatile *SPI_MemMapPtr;



 




 


 



   




 




 

 
 
 
 
 
 
 
 
 
 



   


 
 
 
 



 




 


 
 
 



   




   




 




 

 
typedef struct SysTick_MemMap {
  uint32_t CSR;                                     
  uint32_t RVR;                                     
  uint32_t CVR;                                     
  uint32_t CALIB;                                   
} volatile *SysTick_MemMapPtr;



 




 


 



   




 




 

 
 
 
 



   


 
 
 



 




 


 
 



   




   




 




 

 
typedef struct TPM_MemMap {
  uint32_t SC;                                      
  uint32_t CNT;                                     
  uint32_t MOD;                                     
  struct {                                          
    uint32_t CnSC;                                    
    uint32_t CnV;                                     
  } CONTROLS[6];
  uint8_t RESERVED_0[20];
  uint32_t STATUS;                                  
  uint8_t RESERVED_1[48];
  uint32_t CONF;                                    
} volatile *TPM_MemMapPtr;



 




 


 



   




 




 

 
 
 
 
 
 
 



   


 
 
 
 
 



 




 


 
 
 
 

 



   




   




 




 

 
typedef struct TSI_MemMap {
  uint32_t GENCS;                                   
  uint32_t DATA;                                    
  uint32_t TSHD;                                    
} volatile *TSI_MemMapPtr;



 




 


 



   




 




 

 
 
 



   


 
 
 



 




 


 
 



   




   




 




 

 
typedef struct UART_MemMap {
  uint8_t BDH;                                      
  uint8_t BDL;                                      
  uint8_t C1;                                       
  uint8_t C2;                                       
  uint8_t S1;                                       
  uint8_t S2;                                       
  uint8_t C3;                                       
  uint8_t D;                                        
  uint8_t C4;                                       
} volatile *UART_MemMapPtr;



 




 


 



   




 




 

 
 
 
 
 
 
 
 
 



   


 
 
 
 



 




 


 
 
 



   




   




 




 

 
typedef struct UART0_MemMap {
  uint8_t BDH;                                      
  uint8_t BDL;                                      
  uint8_t C1;                                       
  uint8_t C2;                                       
  uint8_t S1;                                       
  uint8_t S2;                                       
  uint8_t C3;                                       
  uint8_t D;                                        
  uint8_t MA1;                                      
  uint8_t MA2;                                      
  uint8_t C4;                                       
  uint8_t C5;                                       
} volatile *UART0_MemMapPtr;



 




 


 



   




 




 

 
 
 
 
 
 
 
 
 
 
 
 



   


 
 
 



 




 


 
 



   




   




 




 

 
typedef struct USB_MemMap {
  uint8_t PERID;                                    
  uint8_t RESERVED_0[3];
  uint8_t IDCOMP;                                   
  uint8_t RESERVED_1[3];
  uint8_t REV;                                      
  uint8_t RESERVED_2[3];
  uint8_t ADDINFO;                                  
  uint8_t RESERVED_3[3];
  uint8_t OTGISTAT;                                 
  uint8_t RESERVED_4[3];
  uint8_t OTGICR;                                   
  uint8_t RESERVED_5[3];
  uint8_t OTGSTAT;                                  
  uint8_t RESERVED_6[3];
  uint8_t OTGCTL;                                   
  uint8_t RESERVED_7[99];
  uint8_t ISTAT;                                    
  uint8_t RESERVED_8[3];
  uint8_t INTEN;                                    
  uint8_t RESERVED_9[3];
  uint8_t ERRSTAT;                                  
  uint8_t RESERVED_10[3];
  uint8_t ERREN;                                    
  uint8_t RESERVED_11[3];
  uint8_t STAT;                                     
  uint8_t RESERVED_12[3];
  uint8_t CTL;                                      
  uint8_t RESERVED_13[3];
  uint8_t ADDR;                                     
  uint8_t RESERVED_14[3];
  uint8_t BDTPAGE1;                                 
  uint8_t RESERVED_15[3];
  uint8_t FRMNUML;                                  
  uint8_t RESERVED_16[3];
  uint8_t FRMNUMH;                                  
  uint8_t RESERVED_17[3];
  uint8_t TOKEN;                                    
  uint8_t RESERVED_18[3];
  uint8_t SOFTHLD;                                  
  uint8_t RESERVED_19[3];
  uint8_t BDTPAGE2;                                 
  uint8_t RESERVED_20[3];
  uint8_t BDTPAGE3;                                 
  uint8_t RESERVED_21[11];
  struct {                                          
    uint8_t ENDPT;                                    
    uint8_t RESERVED_0[3];
  } ENDPOINT[16];
  uint8_t USBCTRL;                                  
  uint8_t RESERVED_22[3];
  uint8_t OBSERVE;                                  
  uint8_t RESERVED_23[3];
  uint8_t CONTROL;                                  
  uint8_t RESERVED_24[3];
  uint8_t USBTRC0;                                  
  uint8_t RESERVED_25[7];
  uint8_t USBFRMADJUST;                             
} volatile *USB_MemMapPtr;



 




 


 



   




 




 

 
 
 
 
 
 
 
 
 
 
 
 
 
 
 
 
 
 
 
 
 
 
 
 
 
 
 
 



   


 
 
 



 




 


 
 

 



   




   




 

  #pragma language=default



   




 




 




   



 


































 







 

 
 





 






 

 
typedef uint8_t   bool_t;

typedef uint8_t    index_t;

 


 





typedef volatile signed char vint8_t;
typedef volatile unsigned char vuint8_t;
typedef volatile signed short vint16_t;
typedef volatile unsigned short vuint16_t;
typedef volatile signed long vint32_t;
typedef volatile unsigned long vuint32_t;

typedef unsigned char uintn8_t;
typedef unsigned long uintn32_t;


 


 
typedef uint32_t instanceId_t;





















void I2C0_Init( void );
void IIC0_StartTransmission( unsigned char SlaveID, unsigned char Mode );
unsigned char I2C0ReadTransaction( unsigned char SlaveAddr, unsigned char u8Command );
void I2C0WriteTransaction( unsigned char SlaveAddr, unsigned char u8Command, unsigned char u8Data );
void I2C0ReadMultiTransaction( unsigned char SlaveAddr, unsigned char u8Command, unsigned char bytes, unsigned char buf[] );
void I2C0WriteMultiTransaction( unsigned char SlaveAddr, unsigned char u8Command, unsigned char *u8Data, unsigned int length );








 
void I2C0_Init( void )
{
    ((((SIM_MemMapPtr)0x40047000u))->SCGC5) |= 0x400u;

     
    ((((SIM_MemMapPtr)0x40047000u))->SCGC4) |= 0x40u;

     
    ((((PORT_MemMapPtr)0x4004A000u))->PCR[0]) = (((uint32_t)(((uint32_t)(2))<<8))&0x700u) | 0x2u | 0x1u;
    ((((PORT_MemMapPtr)0x4004A000u))->PCR[1]) = (((uint32_t)(((uint32_t)(2))<<8))&0x700u) | 0x2u | 0x1u;

     
    ((((I2C_MemMapPtr)0x40066000u))->F)  = 0x17;

     
    ((((I2C_MemMapPtr)0x40066000u))->C1) = 0x80u;
}





 
void Pause( uint32_t time )
{
    uint32_t n;
    for( n = 1; n < time; n++ )
    {
        asm("nop");
    }
}




















 
void IIC0_StartTransmission( unsigned char SlaveID, unsigned char Mode )
{
    unsigned char MasterTransmission = 0;


     
    if( Mode == 0x00 )
    {
        MasterTransmission = 0x00;
    }
    else
    {
        MasterTransmission = 0x01;
    }

     
    SlaveID = SlaveID << 1;

     
    SlaveID |= (unsigned char)MasterTransmission;

     
    ((((I2C_MemMapPtr)0x40066000u))->C1) |= 0x10u; ((((I2C_MemMapPtr)0x40066000u))->C1) |= 0x20u;

     
    ((((I2C_MemMapPtr)0x40066000u))->D) = SlaveID;
}











 
unsigned char I2C0ReadTransaction( unsigned char SlaveAddr, unsigned char u8Command )
{
    unsigned char result;


     
    IIC0_StartTransmission( SlaveAddr, 0x00 );
    while((((((I2C_MemMapPtr)0x40066000u))->S) & 0x2u)==0) {} ((((I2C_MemMapPtr)0x40066000u))->S) |= 0x2u;;

     
    ((((I2C_MemMapPtr)0x40066000u))->D) = u8Command;
    while((((((I2C_MemMapPtr)0x40066000u))->S) & 0x2u)==0) {} ((((I2C_MemMapPtr)0x40066000u))->S) |= 0x2u;;

     
    ((((I2C_MemMapPtr)0x40066000u))->C1) |= 0x4u;

     
    ((((I2C_MemMapPtr)0x40066000u))->D) = (SlaveAddr << 1) | 0x01; 
    while((((((I2C_MemMapPtr)0x40066000u))->S) & 0x2u)==0) {} ((((I2C_MemMapPtr)0x40066000u))->S) |= 0x2u;;

     
    ((((I2C_MemMapPtr)0x40066000u))->C1) &= (~0x10u);

     
    ((((I2C_MemMapPtr)0x40066000u))->C1) &= ~0x8u;

     
    ((((I2C_MemMapPtr)0x40066000u))->C1) |= 0x8u;

     
    result = ((((I2C_MemMapPtr)0x40066000u))->D);
    while((((((I2C_MemMapPtr)0x40066000u))->S) & 0x2u)==0) {} ((((I2C_MemMapPtr)0x40066000u))->S) |= 0x2u;;

     
    ((((I2C_MemMapPtr)0x40066000u))->C1) &= ~0x20u; ((((I2C_MemMapPtr)0x40066000u))->C1) &= ~0x10u;

     
    result = ((((I2C_MemMapPtr)0x40066000u))->D);

    Pause(50);

    return( result );
}












 
void I2C0WriteTransaction( unsigned char SlaveAddr, unsigned char u8Command, unsigned char u8Data )
{
     
    IIC0_StartTransmission( SlaveAddr, 0x00 );
    while((((((I2C_MemMapPtr)0x40066000u))->S) & 0x2u)==0) {} ((((I2C_MemMapPtr)0x40066000u))->S) |= 0x2u;;

     
    ((((I2C_MemMapPtr)0x40066000u))->D) = u8Command;
    while((((((I2C_MemMapPtr)0x40066000u))->S) & 0x2u)==0) {} ((((I2C_MemMapPtr)0x40066000u))->S) |= 0x2u;;

     
    ((((I2C_MemMapPtr)0x40066000u))->D) = u8Data;
    while((((((I2C_MemMapPtr)0x40066000u))->S) & 0x2u)==0) {} ((((I2C_MemMapPtr)0x40066000u))->S) |= 0x2u;;

    ((((I2C_MemMapPtr)0x40066000u))->C1) &= ~0x20u; ((((I2C_MemMapPtr)0x40066000u))->C1) &= ~0x10u;

    Pause(50);
}











 
void I2C0ReadMultiTransaction( unsigned char SlaveAddr, unsigned char u8Command, unsigned char bytes, unsigned char buf[] )
{
    unsigned char result;
    int i;


     
    IIC0_StartTransmission( SlaveAddr, 0x00 );
    while((((((I2C_MemMapPtr)0x40066000u))->S) & 0x2u)==0) {} ((((I2C_MemMapPtr)0x40066000u))->S) |= 0x2u;;

     
    ((((I2C_MemMapPtr)0x40066000u))->D) = u8Command;
    while((((((I2C_MemMapPtr)0x40066000u))->S) & 0x2u)==0) {} ((((I2C_MemMapPtr)0x40066000u))->S) |= 0x2u;;

     
    ((((I2C_MemMapPtr)0x40066000u))->C1) |= 0x4u;

     
    ((((I2C_MemMapPtr)0x40066000u))->D) = (SlaveAddr << 1) | 0x01; 
    while((((((I2C_MemMapPtr)0x40066000u))->S) & 0x2u)==0) {} ((((I2C_MemMapPtr)0x40066000u))->S) |= 0x2u;;

     
    ((((I2C_MemMapPtr)0x40066000u))->C1) &= (~0x10u);

     
    ((((I2C_MemMapPtr)0x40066000u))->C1) &= ~0x8u;

     
    result = ((((I2C_MemMapPtr)0x40066000u))->D);
    while((((((I2C_MemMapPtr)0x40066000u))->S) & 0x2u)==0) {} ((((I2C_MemMapPtr)0x40066000u))->S) |= 0x2u;;

    for( i = 0; i < bytes - 2; i++ )
    {
         
        buf[i] = ((((I2C_MemMapPtr)0x40066000u))->D);
        while((((((I2C_MemMapPtr)0x40066000u))->S) & 0x2u)==0) {} ((((I2C_MemMapPtr)0x40066000u))->S) |= 0x2u;;
    }

     
    ((((I2C_MemMapPtr)0x40066000u))->C1) |= 0x8u;

     
    buf[i++] = ((((I2C_MemMapPtr)0x40066000u))->D);
    while((((((I2C_MemMapPtr)0x40066000u))->S) & 0x2u)==0) {} ((((I2C_MemMapPtr)0x40066000u))->S) |= 0x2u;;

     
    ((((I2C_MemMapPtr)0x40066000u))->C1) &= ~0x20u; ((((I2C_MemMapPtr)0x40066000u))->C1) &= ~0x10u;

     
    buf[i++] = ((((I2C_MemMapPtr)0x40066000u))->D);

    Pause(50);
}












 
void I2C0WriteMultiTransaction( unsigned char SlaveAddr, unsigned char u8Command, unsigned char *u8Data, unsigned int length )
{
    unsigned int i;

     
    IIC0_StartTransmission( SlaveAddr, 0x00 );
    while((((((I2C_MemMapPtr)0x40066000u))->S) & 0x2u)==0) {} ((((I2C_MemMapPtr)0x40066000u))->S) |= 0x2u;;

     
    ((((I2C_MemMapPtr)0x40066000u))->D) = u8Command;
    while((((((I2C_MemMapPtr)0x40066000u))->S) & 0x2u)==0) {} ((((I2C_MemMapPtr)0x40066000u))->S) |= 0x2u;;

     
    for( i = 0; i < length; i++ )
    {
        ((((I2C_MemMapPtr)0x40066000u))->D) = u8Data[i];
        while((((((I2C_MemMapPtr)0x40066000u))->S) & 0x2u)==0) {} ((((I2C_MemMapPtr)0x40066000u))->S) |= 0x2u;;
    }

    ((((I2C_MemMapPtr)0x40066000u))->C1) &= ~0x20u; ((((I2C_MemMapPtr)0x40066000u))->C1) &= ~0x10u;

    Pause(50);
}
