###############################################################################
#
# IAR ANSI C/C++ Compiler V7.70.1.11437/W32 for ARM       19/Apr/2018  05:30:26
# Copyright 1999-2016 IAR Systems AB.
#
#    Cpu mode     =  thumb
#    Endian       =  little
#    Source file  =  
#        C:\proj\Esel\KL16_SMAC_MQXLite_SHT31\MQXLITE\psp\cortex_m\psp_tiad.c
#    Command line =  
#        C:\proj\Esel\KL16_SMAC_MQXLite_SHT31\MQXLITE\psp\cortex_m\psp_tiad.c
#        --preprocess "C:\proj\Esel\KL16_SMAC_MQXLite_SHT31\app\kl16z128_eslora
#        MQXLite\List" -lcN
#        "C:\proj\Esel\KL16_SMAC_MQXLite_SHT31\app\kl16z128_eslora
#        MQXLite\List" -o
#        "C:\proj\Esel\KL16_SMAC_MQXLite_SHT31\app\kl16z128_eslora MQXLite\Obj"
#        --no_cse --no_unroll --no_inline --no_code_motion --no_tbaa
#        --no_clustering --no_scheduling --debug --endian=little
#        --cpu=Cortex-M0+ -e --fpu=None --dlib_config "C:\Program Files
#        (x86)\IAR Systems\Embedded Workbench
#        7.5\arm\INC\c\DLib_Config_Normal.h" -I
#        C:\proj\Esel\KL16_SMAC_MQXLite_SHT31\app\Interface\ -I
#        C:\proj\Esel\KL16_SMAC_MQXLite_SHT31\app\Sources\ -I
#        C:\proj\Esel\KL16_SMAC_MQXLite_SHT31\app\..\MQXLITE\include\ -I
#        C:\proj\Esel\KL16_SMAC_MQXLite_SHT31\app\..\MQXLITE\config\ -I
#        C:\proj\Esel\KL16_SMAC_MQXLite_SHT31\app\..\MQXLITE\psp\cortex_m\ -I
#        C:\proj\Esel\KL16_SMAC_MQXLite_SHT31\app\..\MQXLITE\psp\cortex_m\compiler\iar\
#        -I C:\proj\Esel\KL16_SMAC_MQXLite_SHT31\app\..\drv\Generated_Code\ -I
#        C:\proj\Esel\KL16_SMAC_MQXLite_SHT31\app\..\drv\PExSupport\Kinetis\ -I
#        C:\proj\Esel\KL16_SMAC_MQXLite_SHT31\app\..\framework\OSAbstraction\MQXLite\Interface\
#        -I
#        C:\proj\Esel\KL16_SMAC_MQXLite_SHT31\app\..\framework\RNG\Interface\
#        -I C:\proj\Esel\KL16_SMAC_MQXLite_SHT31\app\..\framework\Common\ -I
#        C:\proj\Esel\KL16_SMAC_MQXLite_SHT31\app\..\framework\Utils\Lists\ -I
#        C:\proj\Esel\KL16_SMAC_MQXLite_SHT31\app\..\framework\Utils\FunctionLib\
#        -I C:\proj\Esel\KL16_SMAC_MQXLite_SHT31\app\..\framework\Utils\SecLib\
#        -I
#        C:\proj\Esel\KL16_SMAC_MQXLite_SHT31\app\..\framework\FSCI\Interface\
#        -I C:\proj\Esel\KL16_SMAC_MQXLite_SHT31\app\..\framework\FSCI\Source\
#        -I
#        C:\proj\Esel\KL16_SMAC_MQXLite_SHT31\app\..\framework\Panic\Interface\
#        -I
#        C:\proj\Esel\KL16_SMAC_MQXLite_SHT31\app\..\framework\SerialManager\Interface\
#        -I
#        C:\proj\Esel\KL16_SMAC_MQXLite_SHT31\app\..\framework\MemManager\Interface\
#        -I
#        C:\proj\Esel\KL16_SMAC_MQXLite_SHT31\app\..\framework\TimersManager\Interface\
#        -I
#        C:\proj\Esel\KL16_SMAC_MQXLite_SHT31\app\..\framework\TimersManager\Source\
#        -I
#        C:\proj\Esel\KL16_SMAC_MQXLite_SHT31\app\..\framework\Messaging\Interface\
#        -I
#        C:\proj\Esel\KL16_SMAC_MQXLite_SHT31\app\..\framework\RNG\Interface\
#        -I C:\proj\Esel\KL16_SMAC_MQXLite_SHT31\app\..\framework\RNG\Source\
#        -I
#        C:\proj\Esel\KL16_SMAC_MQXLite_SHT31\app\..\ieee_802_15_4\Phy\Interface\
#        -I
#        C:\proj\Esel\KL16_SMAC_MQXLite_SHT31\app\..\ieee_802_15_4\SMAC\Interface\
#        -I
#        C:\proj\Esel\KL16_SMAC_MQXLite_SHT31\app\..\drv\Portable\ADC\Interface\
#        -I
#        C:\proj\Esel\KL16_SMAC_MQXLite_SHT31\app\..\drv\Portable\BME\Interface\
#        -I
#        C:\proj\Esel\KL16_SMAC_MQXLite_SHT31\app\..\drv\Portable\Flash\Interface\
#        -I
#        C:\proj\Esel\KL16_SMAC_MQXLite_SHT31\app\..\drv\Portable\I2C\Interface\
#        -I
#        C:\proj\Esel\KL16_SMAC_MQXLite_SHT31\app\..\drv\Portable\LED\Interface\
#        -I
#        C:\proj\Esel\KL16_SMAC_MQXLite_SHT31\app\..\drv\Portable\LLWU\Interface\
#        -I
#        C:\proj\Esel\KL16_SMAC_MQXLite_SHT31\app\..\drv\Portable\LPTMR\Interface\
#        -I
#        C:\proj\Esel\KL16_SMAC_MQXLite_SHT31\app\..\drv\Portable\SMC\Interface\
#        -I
#        C:\proj\Esel\KL16_SMAC_MQXLite_SHT31\app\..\drv\Portable\MCG\Interface\
#        -I C:\proj\Esel\KL16_SMAC_MQXLite_SHT31\app\..\drv\Portable\Reset\ -On
#    Locale       =  Japanese_Japan.932
#    List file    =  
#        C:\proj\Esel\KL16_SMAC_MQXLite_SHT31\app\kl16z128_eslora
#        MQXLite\List\psp_tiad.lst
#    Object file  =  
#        C:\proj\Esel\KL16_SMAC_MQXLite_SHT31\app\kl16z128_eslora
#        MQXLite\Obj\psp_tiad.o
#
###############################################################################

C:\proj\Esel\KL16_SMAC_MQXLite_SHT31\MQXLITE\psp\cortex_m\psp_tiad.c
      1          /**HEADER********************************************************************
      2          *
      3          * Copyright (c) 2010 Freescale Semiconductor
      4          * All Rights Reserved
      5          *
      6          ***************************************************************************
      7          *
      8          * THIS SOFTWARE IS PROVIDED BY FREESCALE "AS IS" AND ANY EXPRESSED OR
      9          * IMPLIED WARRANTIES, INCLUDING, BUT NOT LIMITED TO, THE IMPLIED WARRANTIES
     10          * OF MERCHANTABILITY AND FITNESS FOR A PARTICULAR PURPOSE ARE DISCLAIMED.
     11          * IN NO EVENT SHALL FREESCALE OR ITS CONTRIBUTORS BE LIABLE FOR ANY DIRECT,
     12          * INDIRECT, INCIDENTAL, SPECIAL, EXEMPLARY, OR CONSEQUENTIAL DAMAGES
     13          * (INCLUDING, BUT NOT LIMITED TO, PROCUREMENT OF SUBSTITUTE GOODS OR
     14          * SERVICES; LOSS OF USE, DATA, OR PROFITS; OR BUSINESS INTERRUPTION)
     15          * HOWEVER CAUSED AND ON ANY THEORY OF LIABILITY, WHETHER IN CONTRACT,
     16          * STRICT LIABILITY, OR TORT (INCLUDING NEGLIGENCE OR OTHERWISE) ARISING
     17          * IN ANY WAY OUT OF THE USE OF THIS SOFTWARE, EVEN IF ADVISED OF
     18          * THE POSSIBILITY OF SUCH DAMAGE.
     19          *
     20          **************************************************************************
     21          *
     22          * $FileName: psp_tiad.c$
     23          * $Version : 3.7.3.0$
     24          * $Date    : Feb-7-2011$
     25          *
     26          * Comments:
     27          *   This file contains the function for adding two tick structs
     28          *
     29          *END************************************************************************/
     30          
     31          #include "mqx_inc.h"
     32          
     33          #if MQX_HAS_TICK
     34          
     35          /*FUNCTION*-------------------------------------------------------------------
     36           *
     37           * Function Name    : _psp_add_ticks
     38           * Returned Value   : none
     39           * Comments         : Adds two PSP tick structure together, including hardware
     40           *   ticks
     41           *
     42           *END*----------------------------------------------------------------------*/
     43          
     44          void _psp_add_ticks
     45             (
     46                 /* [IN] The two structures to add - both must be normalized */
     47                 PSP_TICK_STRUCT_PTR a_ptr,
     48                 PSP_TICK_STRUCT_PTR b_ptr,
     49          
     50                 /* [OUT] The result of the addition */
     51                 PSP_TICK_STRUCT_PTR r_ptr
     52             )
     53          { /* Body */
     54             register uint_32       a_hw_ticks;
     55             register uint_32       b_hw_ticks;
     56             register uint_32       hwtpt;
     57          
     58             r_ptr->TICKS[0] = a_ptr->TICKS[0] + b_ptr->TICKS[0];
     59          
     60             a_hw_ticks  = a_ptr->HW_TICKS[0];
     61             b_hw_ticks  = b_ptr->HW_TICKS[0];
     62          
     63             hwtpt = _mqx_kernel_data->HW_TICKS_PER_TICK;
     64          
     65             if ( a_hw_ticks >= (hwtpt - b_hw_ticks)) {
     66                r_ptr->TICKS[0]++;
     67                r_ptr->HW_TICKS[0] = a_hw_ticks + (b_hw_ticks - hwtpt);
     68             } else {
     69                r_ptr->HW_TICKS[0] = a_hw_ticks + b_hw_ticks;
     70             } /* Endif */
     71          
     72          } /* Endbody */
     73          
     74          #endif
     75          
     76          /* EOF */
     77          

   Maximum stack usage in bytes:

   .cstack Function
   ------- --------
      28   _psp_add_ticks


   Section sizes:

   Bytes  Function/Label
   -----  --------------
      92  _psp_add_ticks

 
 92 bytes in section .text
 
 92 bytes of CODE memory

Errors: none
Warnings: none
